^C:\USERS\ROOT\DOCUMENTS\VISUAL STUDIO 2015\PROJECTS\FACEDETECTOR\DETECTLIB\FACEDETECT.CPP|C:\USERS\ROOT\DOCUMENTS\VISUAL STUDIO 2015\PROJECTS\FACEDETECTOR\DETECTLIB\JSONWRITER.CPP|C:\USERS\ROOT\DOCUMENTS\VISUAL STUDIO 2015\PROJECTS\FACEDETECTOR\DETECTLIB\STDAFX.CPP|C:\USERS\ROOT\DOCUMENTS\VISUAL STUDIO 2015\PROJECTS\FACEDETECTOR\DETECTLIB\THREADPOOL.CPP
C:\USERS\ROOT\DOCUMENTS\VISUAL STUDIO 2015\PROJECTS\FACEDETECTOR\DETECTLIB\X64\RELEASE\VC140.PDB
C:\USERS\ROOT\DOCUMENTS\VISUAL STUDIO 2015\PROJECTS\FACEDETECTOR\DETECTLIB\X64\RELEASE\THREADPOOL.OBJ
C:\USERS\ROOT\DOCUMENTS\VISUAL STUDIO 2015\PROJECTS\FACEDETECTOR\DETECTLIB\X64\RELEASE\STDAFX.OBJ
C:\USERS\ROOT\DOCUMENTS\VISUAL STUDIO 2015\PROJECTS\FACEDETECTOR\DETECTLIB\X64\RELEASE\JSONWRITER.OBJ
C:\USERS\ROOT\DOCUMENTS\VISUAL STUDIO 2015\PROJECTS\FACEDETECTOR\DETECTLIB\X64\RELEASE\FACEDETECT.OBJ
^C:\USERS\ROOT\DOCUMENTS\VISUAL STUDIO 2015\PROJECTS\FACEDETECTOR\DETECTLIB\STDAFX.CPP
C:\USERS\ROOT\DOCUMENTS\VISUAL STUDIO 2015\PROJECTS\FACEDETECTOR\DETECTLIB\X64\RELEASE\VC140.PDB
^C:\USERS\ROOT\DOCUMENTS\VISUAL STUDIO 2015\PROJECTS\FACEDETECTOR\DETECTLIB\DLLMAIN.CPP
C:\USERS\ROOT\DOCUMENTS\VISUAL STUDIO 2015\PROJECTS\FACEDETECTOR\DETECTLIB\X64\RELEASE\VC140.PDB
C:\USERS\ROOT\DOCUMENTS\VISUAL STUDIO 2015\PROJECTS\FACEDETECTOR\DETECTLIB\X64\RELEASE\DLLMAIN.OBJ
^C:\USERS\ROOT\DOCUMENTS\VISUAL STUDIO 2015\PROJECTS\FACEDETECTOR\DETECTLIB\FACEDETECT.CPP|C:\USERS\ROOT\DOCUMENTS\VISUAL STUDIO 2015\PROJECTS\FACEDETECTOR\DETECTLIB\JSONWRITER.CPP|C:\USERS\ROOT\DOCUMENTS\VISUAL STUDIO 2015\PROJECTS\FACEDETECTOR\DETECTLIB\THREADPOOL.CPP
C:\USERS\ROOT\DOCUMENTS\VISUAL STUDIO 2015\PROJECTS\FACEDETECTOR\DETECTLIB\X64\RELEASE\VC140.PDB
C:\USERS\ROOT\DOCUMENTS\VISUAL STUDIO 2015\PROJECTS\FACEDETECTOR\DETECTLIB\X64\RELEASE\THREADPOOL.OBJ
C:\USERS\ROOT\DOCUMENTS\VISUAL STUDIO 2015\PROJECTS\FACEDETECTOR\DETECTLIB\X64\RELEASE\JSONWRITER.OBJ
C:\USERS\ROOT\DOCUMENTS\VISUAL STUDIO 2015\PROJECTS\FACEDETECTOR\DETECTLIB\X64\RELEASE\FACEDETECT.OBJ
^C:\USERS\ROOT\DOCUMENTS\VISUAL STUDIO 2015\PROJECTS\FACEDETECTOR\DETECTLIB\JSONWRITER.CPP
C:\USERS\ROOT\DOCUMENTS\VISUAL STUDIO 2015\PROJECTS\FACEDETECTOR\DETECTLIB\X64\RELEASE\VC140.PDB
^C:\USERS\ROOT\DOCUMENTS\VISUAL STUDIO 2015\PROJECTS\FACEDETECTOR\DETECTLIB\THREADPOOL.CPP
C:\USERS\ROOT\DOCUMENTS\VISUAL STUDIO 2015\PROJECTS\FACEDETECTOR\DETECTLIB\X64\RELEASE\VC140.PDB
^C:\USERS\ROOT\DOCUMENTS\VISUAL STUDIO 2015\PROJECTS\FACEDETECTOR\DETECTLIB\FACEDETECT.CPP
C:\USERS\ROOT\DOCUMENTS\VISUAL STUDIO 2015\PROJECTS\FACEDETECTOR\DETECTLIB\X64\RELEASE\VC140.PDB
C:\USERS\ROOT\DOCUMENTS\VISUAL STUDIO 2015\PROJECTS\FACEDETECTOR\DETECTLIB\X64\RELEASE\FACEDETECT.OBJ
