^C:\USERS\ROOT\DOCUMENTS\VISUAL STUDIO 2015\PROJECTS\FACEDETECTOR\DETECTLIB\X64\DEBUG\DLLMAIN.OBJ|C:\USERS\ROOT\DOCUMENTS\VISUAL STUDIO 2015\PROJECTS\FACEDETECTOR\DETECTLIB\X64\DEBUG\FACEDETECT.OBJ|C:\USERS\ROOT\DOCUMENTS\VISUAL STUDIO 2015\PROJECTS\FACEDETECTOR\DETECTLIB\X64\DEBUG\JSONWRITER.OBJ|C:\USERS\ROOT\DOCUMENTS\VISUAL STUDIO 2015\PROJECTS\FACEDETECTOR\DETECTLIB\X64\DEBUG\STDAFX.OBJ|C:\USERS\ROOT\DOCUMENTS\VISUAL STUDIO 2015\PROJECTS\FACEDETECTOR\DETECTLIB\X64\DEBUG\THREADPOOL.OBJ
C:\USERS\ROOT\DOCUMENTS\VISUAL STUDIO 2015\PROJECTS\FACEDETECTOR\X64\DEBUG\DETECTLIB.ILK
C:\USERS\ROOT\DOCUMENTS\VISUAL STUDIO 2015\PROJECTS\FACEDETECTOR\X64\DEBUG\DETECTLIB.DLL
C:\USERS\ROOT\DOCUMENTS\VISUAL STUDIO 2015\PROJECTS\FACEDETECTOR\X64\DEBUG\DETECTLIB.PDB
