^C:\USERS\ROOT\DOCUMENTS\VISUAL STUDIO 2015\PROJECTS\FACEDETECTOR\DETECTLIB\WIN32\DEBUG\DLLMAIN.OBJ|C:\USERS\ROOT\DOCUMENTS\VISUAL STUDIO 2015\PROJECTS\FACEDETECTOR\DETECTLIB\WIN32\DEBUG\FACEDETECT.OBJ|C:\USERS\ROOT\DOCUMENTS\VISUAL STUDIO 2015\PROJECTS\FACEDETECTOR\DETECTLIB\WIN32\DEBUG\JSONWRITER.OBJ|C:\USERS\ROOT\DOCUMENTS\VISUAL STUDIO 2015\PROJECTS\FACEDETECTOR\DETECTLIB\WIN32\DEBUG\STDAFX.OBJ|C:\USERS\ROOT\DOCUMENTS\VISUAL STUDIO 2015\PROJECTS\FACEDETECTOR\DETECTLIB\WIN32\DEBUG\THREADPOOL.OBJ
C:\USERS\ROOT\DOCUMENTS\VISUAL STUDIO 2015\PROJECTS\FACEDETECTOR\X86\DEBUG\DETECTLIB.ILK
C:\USERS\ROOT\DOCUMENTS\VISUAL STUDIO 2015\PROJECTS\FACEDETECTOR\X86\DEBUG\DETECTLIB.DLL
C:\USERS\ROOT\DOCUMENTS\VISUAL STUDIO 2015\PROJECTS\FACEDETECTOR\X86\DEBUG\DETECTLIB.PDB
