^C:\USERS\ROOT\DOCUMENTS\VISUAL STUDIO 2015\PROJECTS\FACEDETECTOR\DETECTLIB\WIN32\DEBUG\DLLMAIN.OBJ|C:\USERS\ROOT\DOCUMENTS\VISUAL STUDIO 2015\PROJECTS\FACEDETECTOR\DETECTLIB\WIN32\DEBUG\FACEDETECT.OBJ|C:\USERS\ROOT\DOCUMENTS\VISUAL STUDIO 2015\PROJECTS\FACEDETECTOR\DETECTLIB\WIN32\DEBUG\JSONWRITER.OBJ|C:\USERS\ROOT\DOCUMENTS\VISUAL STUDIO 2015\PROJECTS\FACEDETECTOR\DETECTLIB\WIN32\DEBUG\STDAFX.OBJ|C:\USERS\ROOT\DOCUMENTS\VISUAL STUDIO 2015\PROJECTS\FACEDETECTOR\DETECTLIB\WIN32\DEBUG\THREADPOOL.OBJ
C:\WINDOWS\GLOBALIZATION\SORTING\SORTDEFAULT.NLS
C:\OPENCV\BUILD\X86\VC14\LIB\OPENCV_CORE320D.LIB
C:\OPENCV\BUILD\X86\VC14\LIB\OPENCV_IMGPROC320D.LIB
C:\OPENCV\BUILD\X86\VC14\LIB\OPENCV_OBJDETECT320D.LIB
C:\OPENCV\BUILD\X86\VC14\LIB\OPENCV_HIGHGUI320D.LIB
C:\OPENCV\BUILD\X86\VC14\LIB\OPENCV_IMGCODECS320D.LIB
C:\PROGRAM FILES (X86)\WINDOWS KITS\8.1\LIB\WINV6.3\UM\X86\KERNEL32.LIB
C:\PROGRAM FILES (X86)\WINDOWS KITS\8.1\LIB\WINV6.3\UM\X86\USER32.LIB
C:\PROGRAM FILES (X86)\WINDOWS KITS\8.1\LIB\WINV6.3\UM\X86\GDI32.LIB
C:\PROGRAM FILES (X86)\WINDOWS KITS\8.1\LIB\WINV6.3\UM\X86\WINSPOOL.LIB
C:\PROGRAM FILES (X86)\WINDOWS KITS\8.1\LIB\WINV6.3\UM\X86\COMDLG32.LIB
C:\PROGRAM FILES (X86)\WINDOWS KITS\8.1\LIB\WINV6.3\UM\X86\ADVAPI32.LIB
C:\PROGRAM FILES (X86)\WINDOWS KITS\8.1\LIB\WINV6.3\UM\X86\SHELL32.LIB
C:\PROGRAM FILES (X86)\WINDOWS KITS\8.1\LIB\WINV6.3\UM\X86\OLE32.LIB
C:\PROGRAM FILES (X86)\WINDOWS KITS\8.1\LIB\WINV6.3\UM\X86\OLEAUT32.LIB
C:\PROGRAM FILES (X86)\WINDOWS KITS\8.1\LIB\WINV6.3\UM\X86\UUID.LIB
C:\PROGRAM FILES (X86)\WINDOWS KITS\8.1\LIB\WINV6.3\UM\X86\ODBC32.LIB
C:\PROGRAM FILES (X86)\WINDOWS KITS\8.1\LIB\WINV6.3\UM\X86\ODBCCP32.LIB
C:\USERS\ROOT\DOCUMENTS\VISUAL STUDIO 2015\PROJECTS\FACEDETECTOR\DETECTLIB\WIN32\DEBUG\FACEDETECT.OBJ
C:\USERS\ROOT\DOCUMENTS\VISUAL STUDIO 2015\PROJECTS\FACEDETECTOR\DETECTLIB\WIN32\DEBUG\DLLMAIN.OBJ
C:\USERS\ROOT\DOCUMENTS\VISUAL STUDIO 2015\PROJECTS\FACEDETECTOR\DETECTLIB\WIN32\DEBUG\JSONWRITER.OBJ
C:\USERS\ROOT\DOCUMENTS\VISUAL STUDIO 2015\PROJECTS\FACEDETECTOR\DETECTLIB\WIN32\DEBUG\STDAFX.OBJ
C:\USERS\ROOT\DOCUMENTS\VISUAL STUDIO 2015\PROJECTS\FACEDETECTOR\DETECTLIB\WIN32\DEBUG\THREADPOOL.OBJ
C:\WINDOWS\SYSTEM32\TZRES.DLL
C:\PROGRAM FILES (X86)\MICROSOFT VISUAL STUDIO 14.0\VC\LIB\MSVCPRTD.LIB
C:\BOOST_1_63_0\STAGE\X86\LIB\LIBBOOST_FILESYSTEM-VC140-MT-GD-1_63.LIB
C:\BOOST_1_63_0\STAGE\X86\LIB\LIBBOOST_SYSTEM-VC140-MT-GD-1_63.LIB
C:\PROGRAM FILES (X86)\MICROSOFT VISUAL STUDIO 14.0\VC\LIB\MSVCRTD.LIB
C:\PROGRAM FILES (X86)\MICROSOFT VISUAL STUDIO 14.0\VC\LIB\OLDNAMES.LIB
C:\PROGRAM FILES (X86)\MICROSOFT VISUAL STUDIO 14.0\VC\LIB\VCRUNTIMED.LIB
C:\PROGRAM FILES (X86)\WINDOWS KITS\10\LIB\10.0.10240.0\UCRT\X86\UCRTD.LIB
